Chapter 1 Introduction | PSYC6060 Course Notes
…
There many ways of viewing the actual data you loaded. A few of these are illustrated now.

1.9.1 view(): See a spreadsheet view of your data

You can inspect your data in a spreadsheet view by using the view command. Do NOT add this command to your script file. Just type it in the Console. Adding it to the script can cause problems.

view(okcupid_profiles)

1.9.2 print(): Check out the data

You can inspect the first few rows of your data with the print() command. It is OK to add a print command to your script. Try the print command below in the Console:

print(okcupid_profiles)

## # A tibble: 59,826 x 2
##    sex   height
##    <fct>  <dbl>
##  1 male      75
##  2 male      70
##  3 male      68
##  4 male      71
##  5 male      66
##  6 male      67
##  7 male      65
##  8 male      70
##  9 male      72
## 10 male      72
## # … with 59,816 more rows
…
1.11.0.3 read_csv puts data into a tibble

Notice that when you print a tibble it DOES show you the number of rows and columns. As well, the tibble only provides the first few rows of output so it doesn’t fill your screen.

my_tibble <- read_csv(file = "data_okcupid_heights.csv")

## Parsed with column specification:
## cols(
##   sex = col_character(),
##   height = col_double()
## )

print(my_tibble)

## # A tibble: 59,826 x 2
##    sex   height
##    <chr>  <dbl>
##  1 male      75
##  2 male      70
##  3 male      68
##  4 male      71
##  5 male      66
##  6 male      67
##  7 male      65
##  8 male      70
##  9 male      72
## 10 male      72
## # … with 59,816 more rows
…
