Chapter 16 All the data: Several correlations | Welcome!
…
analytic_data_grouped_by_class <- group_by(analytic_data, class)

Then you calculate the correlation for each group:

cor_by_group <- summarise(analytic_data_grouped_by_class, 
                          cor_for_class = cor.test(x = extrav,
                                                   y = popular)$estimate)

## `summarise()` ungrouping output (override with `.groups` argument)

You can then print the correlation for the first few groups with the print command. Notice that the result for class 5 (i.e., r = .64) is the same as when we did analyses specifically for group 5 in the previous section.

print(cor_by_group)

## # A tibble: 100 x 2
##    class cor_for_class
##    <dbl>         <dbl>
##  1     1         0.515
##  2     2         0.656
##  3     3         0.576
##  4     4         0.519
##  5     5         0.641
##  6     6         0.647
##  7     7         0.231
##  8     8         0.700
##  9     9         0.623
## 10    10         0.278
## # … with 90 more rows
…
