Chapter 3 Making your data ready for analysis | PSYC6060 Course Notes
…
analytic_food_tidy <- analytic_data_food %>%
  pivot_longer(pizza_hot:burger_cold,
               names_to = c("food", "temperature"),
               names_sep = "_",
               values_to = "taste"
  )

print(analytic_food_tidy)

## # A tibble: 36 x 5
##    id      sex food   temperature taste
##    <fct> <dbl> <chr>  <chr>       <dbl>
##  1 1         1 pizza  hot             7
##  2 1         1 pizza  cold            6
##  3 1         1 steak  hot             6
##  4 1         1 steak  cold            3
##  5 1         1 burger hot             7
##  6 1         1 burger cold            4
##  7 2         2 pizza  hot             8
##  8 2         2 pizza  cold            7
##  9 2         2 steak  hot             6
## 10 2         2 steak  cold            3
## # … with 26 more rows
…
But now comes the complicated point wher eyou need to pivot the data to longer.

print(analytic_data_survey)

## # A tibble: 300 x 8
##    id      age sex    eye_color esteem_t1 esteem_t2 jobsat_t1 jobsat_t2
##    <fct> <dbl> <fct>  <fct>         <dbl>     <dbl>     <dbl>     <dbl>
##  1 1        23 male   blue            3.2       3.8      4         4.2 
##  2 2        22 female brown           3.8       4.4      5         4.4 
##  3 3        18 male   hazel           3.8       4.4      4.4       5   
##  4 4        23 female blue            3         3.6      3.5       4.2 
##  5 5        22 male   <NA>            3.4       4        4         4.25
##  6 6        17 female hazel           3.5       4.2      3.8       4.4 
##  7 7        23 male   blue            3         3.6      3.6       4.2 
##  8 8        22 female brown           3.8       4.4      4.6       5.2 
##  9 9        17 male   hazel           3.6       4.2      3.75      4   
## 10 10       NA female blue            3.6       4.2      3.8       4.5 
## # … with 290 more rows

analytic_survey_tidy <- analytic_data_survey %>%
  pivot_longer(esteem_t1:jobsat_t2,
               names_to = c(".value", "time"),
               names_pattern = "(.*)_(t.)"
  )

print(analytic_survey_tidy)

## # A tibble: 600 x 7
##    id      age sex    eye_color time  esteem jobsat
##    <fct> <dbl> <fct>  <fct>     <chr>  <dbl>  <dbl>
##  1 1        23 male   blue      t1       3.2   4   
##  2 1        23 male   blue      t2       3.8   4.2 
##  3 2        22 female brown     t1       3.8   5   
##  4 2        22 female brown     t2       4.4   4.4 
##  5 3        18 male   hazel     t1       3.8   4.4 
##  6 3        18 male   hazel     t2       4.4   5   
##  7 4        23 female blue      t1       3     3.5 
##  8 4        23 female blue      t2       3.6   4.2 
##  9 5        22 male   <NA>      t1       3.4   4   
## 10 5        22 male   <NA>      t2       4     4.25
## # … with 590 more rows
…
